{
	"type": "lyriawerkbank:crafting_nbt_shaped",
	"group": "lyriawerkbank:schlichter_dolch",
	"name": "Schlichter Dolch",
	"pattern": [
		"   ",
		" V ",
		"ES "
	],
	"key": {
		"S": {
			"constant": "lyriawerkbank:schlichtes_griffstueck",
			"name": "Schlichtes Griffstück"
		},
		"E": {
			"constant": "lyriawerkbank:einfacher_orb",
			"name": "Einfacher Orb"
		},
		"V": {
			"constant": "lyriawerkbank:veredelter_eisenbarren",
			"name": "Veredelter Eisenbarren"
		}
	},
	"result": {
		"constant": "lyriawerkbank:schlichter_dolch"
	}
}
