{
	"type": "lyriawerkbank:crafting_nbt_shaped",
	"group": "lyriawerkbank:edelsteinbesetztes_siedlermesser",
	"name": "Edelsteinbesetztes Siedlermesser",
	"pattern": [
		"  V",
		" V ",
		"EP "
	],
	"key": {
		"P": {
			"constant": "lyriawerkbank:polierter_opal",
			"name": "Polierter Opal"
		},
		"E": {
			"constant": "lyriawerkbank:edelsteinbesetztes_griffstueck",
			"name": "Edelsteinbesetztes Griffstück"
		},
		"V": {
			"constant": "lyriawerkbank:veredelter_stahlbarren",
			"name": "Veredelter Stahlbarren"
		}
	},
	"result": {
		"constant": "lyriawerkbank:edelsteinbesetztes_siedlermesser"
	}
}
