{
	"type": "lyriawerkbank:crafting_nbt_shaped",
	"group": "lyriawerkbank:einfache_feldhacke",
	"name": "Einfache Feldhacke",
	"pattern": [
		" OE",
		"O E",
		"I  "
	],
	"key": {
		"E": {
			"constant": "lyriawerkbank:einfacher_kupferbarren",
			"name": "Einfacher Kupferbarren"
		},
		"I": {
			"constant": "lyriawerkbank:einfaches_griffstueck",
			"name": "Einfaches Griffstück"
		},
		"O": {
			"item": "minecraft:oak_planks"
		}
	},
	"result": {
		"constant": "lyriawerkbank:einfache_feldhacke"
	}
}
