{
	"type": "lyriawerkbank:crafting_nbt_shaped",
	"group": "lyriawerkbank:fruechtebrot",
	"name": "Früchtebrot",
	"pattern": [
		"RAM",
		" B ",
		"   "
	],
	"key": {
		"A": {
			"item": "minecraft:apple"
		},
		"R": {
			"constant": "lyriawerkbank:rapsoel",
			"name": "Rapsöl"
		},
		"B": {
			"item": "minecraft:bread"
		},
		"M": {
			"item": "minecraft:melon_slice"
		}
	},
	"result": {
		"constant": "lyriawerkbank:fruechtebrot"
	}
}
