{
	"type": "lyriawerkbank:crafting_nbt_shaped",
	"group": "lyriawerkbank:hochwertiges_hackbeil",
	"name": "Hochwertiges Hackbeil",
	"pattern": [
		"VG ",
		"VG ",
		" HE"
	],
	"key": {
		"E": {
			"constant": "lyriawerkbank:geschliffener_diamant",
			"name": "Geschliffener Diamant"
		},
		"V": {
			"constant": "lyriawerkbank:veredelter_kupferbarren",
			"name": "Veredelter Kupferbarren"
		},
		"G": {
			"constant": "lyriawerkbank:geschliffenes_tropenholz",
			"name": "Geschliffenes Tropenholz"
		},
		"H": {
			"constant": "lyriawerkbank:hochwertiges_griffstueck",
			"name": "Hochwertiges Griffstück"
		}
	},
	"result": {
		"constant": "lyriawerkbank:hochwertiges_hackbeil"
	}
}
