{
	"type": "lyriawerkbank:crafting_nbt_shaped",
	"group": "lyriawerkbank:hochwertiges_siedlermesser",
	"name": "Hochwertiges Siedlermesser",
	"pattern": [
		"  V",
		" V ",
		"HG "
	],
	"key": {
		"V": {
			"constant": "lyriawerkbank:veredelter_kupferbarren",
			"name": "Veredelter Kupferbarren"
		},
		"G": {
			"constant": "lyriawerkbank:geschliffener_opal",
			"name": "Geschliffener Opal"
		},
		"H": {
			"constant": "lyriawerkbank:hochwertiges_griffstueck",
			"name": "Hochwertiges Griffstück"
		}
	},
	"result": {
		"constant": "lyriawerkbank:hochwertiges_siedlermesser"
	}
}
