{
	"type": "lyriawerkbank:crafting_nbt_shaped",
	"group": "lyriawerkbank:rindergulasch",
	"name": "Rindergulasch",
	"pattern": [
		"KBC",
		"O O",
		"   "
	],
	"key": {
		"B": {
			"item": "minecraft:beef"
		},
		"C": {
			"item": "minecraft:carrot"
		},
		"K": {
			"constant": "lyriawerkbank:kraeutersud",
			"name": "Kräutersud"
		},
		"O": {
			"item": "minecraft:cooked_beef"
		}
	},
	"result": {
		"constant": "lyriawerkbank:rindergulasch"
	}
}
