{
	"type": "lyriawerkbank:crafting_nbt_shaped",
	"group": "lyriawerkbank:verstaerkte_ziehhacke",
	"name": "Verstärkte Ziehhacke",
	"pattern": [
		"GEI",
		"E I",
		"V  "
	],
	"key": {
		"E": {
			"constant": "lyriawerkbank:geschliffenes_schwarzeichenholz",
			"name": "Geschliffenes Schwarzeichenholz"
		},
		"V": {
			"constant": "lyriawerkbank:verstaerktes_griffstueck",
			"name": "Verstärktes Griffstück"
		},
		"G": {
			"constant": "lyriawerkbank:geschliffener_diamant",
			"name": "Geschliffener Diamant"
		},
		"I": {
			"constant": "lyriawerkbank:einfacher_stahlbarren",
			"name": "Einfacher Stahlbarren"
		}
	},
	"result": {
		"constant": "lyriawerkbank:verstaerkte_ziehhacke"
	}
}
