{
	"type": "lyriawerkbank:crafting_nbt_shaped",
	"group": "lyriawerkbank:verstaerkte_feldhacke",
	"name": "Verstärkte Feldhacke",
	"pattern": [
		"DGE",
		"G E",
		"V  "
	],
	"key": {
		"D": {
			"item": "minecraft:diamond"
		},
		"E": {
			"constant": "lyriawerkbank:einfacher_stahlbarren",
			"name": "Einfacher Stahlbarren"
		},
		"V": {
			"constant": "lyriawerkbank:verstaerktes_griffstueck",
			"name": "Verstärktes Griffstück"
		},
		"G": {
			"constant": "lyriawerkbank:geschliffenes_eichenholz",
			"name": "Geschliffenes Eichenholz"
		}
	},
	"result": {
		"constant": "lyriawerkbank:verstaerkte_feldhacke"
	}
}
