{
	"type": "lyriawerkbank:crafting_nbt_shaped",
	"group": "lyriawerkbank:verstaerktes_siedlermesser",
	"name": "Verstärktes Siedlermesser",
	"pattern": [
		"  E",
		" E ",
		"VG "
	],
	"key": {
		"E": {
			"constant": "lyriawerkbank:einfacher_stahlbarren",
			"name": "Einfacher Stahlbarren"
		},
		"V": {
			"constant": "lyriawerkbank:verstaerktes_griffstueck",
			"name": "Verstärktes Griffstück"
		},
		"G": {
			"constant": "lyriawerkbank:geschliffener_opal",
			"name": "Geschliffener Opal"
		}
	},
	"result": {
		"constant": "lyriawerkbank:verstaerktes_siedlermesser"
	}
}
