{
	"type": "lyriawerkbank:crafting_nbt_shaped",
	"group": "lyriawerkbank:verstaerktes_hackbeil",
	"name": "Verstärktes Hackbeil",
	"pattern": [
		"EG ",
		"EG ",
		" VS"
	],
	"key": {
		"S": {
			"constant": "lyriawerkbank:geschliffener_diamant",
			"name": "Geschliffener Diamant"
		},
		"E": {
			"constant": "lyriawerkbank:einfacher_stahlbarren",
			"name": "Einfacher Stahlbarren"
		},
		"V": {
			"constant": "lyriawerkbank:verstaerktes_griffstueck",
			"name": "Verstärktes Griffstück"
		},
		"G": {
			"constant": "lyriawerkbank:geschliffenes_tropenholz",
			"name": "Geschliffenes Tropenholz"
		}
	},
	"result": {
		"constant": "lyriawerkbank:verstaerktes_hackbeil"
	}
}
