{
	"type": "lyriawerkbank:crafting_nbt_shaped",
	"group": "lyriawerkbank:wildschweinhaxe",
	"name": "Wildschweinhaxe",
	"pattern": [
		" A ",
		"IPI",
		" I "
	],
	"key": {
		"P": {
			"item": "minecraft:porkchop"
		},
		"A": {
			"constant": "lyriawerkbank:agavensirup",
			"name": "Agavensirup"
		},
		"I": {
			"item": "minecraft:iron_nugget"
		}
	},
	"result": {
		"constant": "lyriawerkbank:wildschweinhaxe"
	}
}
