{
	"type": "lyriawerkbank:crafting_nbt_shaped",
	"group": "lyriawerkbank:robuste_angelrute",
	"name": "Robuste Angelrute",
	"pattern": [
		"  G",
		" GS",
		"RUS"
	],
	"key": {
		"R": {
			"constant": "lyriawerkbank:robustes_griffstueck",
			"name": "Robustes Griffstück"
		},
		"S": {
			"item": "minecraft:string"
		},
		"U": {
			"constant": "lyriawerkbank:unbearbeiteter_saphir",
			"name": "Unbearbeiteter Saphir"
		},
		"G": {
			"constant": "lyriawerkbank:gehobeltes_akazienholz",
			"name": "Gehobeltes Akazienholz"
		}
	},
	"result": {
		"constant": "lyriawerkbank:robuste_angelrute"
	}
}
