{
	"type": "lyriawerkbank:crafting_nbt_shaped",
	"group": "lyriawerkbank:eiche",
	"name": "Eiche",
	"pattern": [
		"   ",
		"   ",
		"OOO"
	],
	"key": {
		"O": {
			"item": "minecraft:oak_wood"
		}
	},
	"result": {
		"constant": "lyriawerkbank:eiche",
		"count": 3
	}
}
