{
	"type": "lyriawerkbank:crafting_nbt_shaped",
	"group": "lyriawerkbank:fischkorb",
	"name": "Fischkorb",
	"pattern": [
		"JWJ",
		"JCJ",
		"JJJ"
	],
	"key": {
		"C": {
			"item": "minecraft:cod",
			"count": 32,
			"type": "lyriawerkbank:count_ingredient"
		},
		"W": {
			"item": "minecraft:wooden_shovel"
		},
		"J": {
			"item": "minecraft:jungle_planks"
		}
	},
	"result": {
		"constant": "lyriawerkbank:fischkorb"
	}
}
