{
	"type": "lyriawerkbank:crafting_nbt_shaped",
	"group": "lyriawerkbank:kakaokiste",
	"name": "Kakaokiste",
	"pattern": [
		"OWO",
		"OCO",
		"OOO"
	],
	"key": {
		"C": {
			"item": "minecraft:cocoa_beans",
			"count": 32,
			"type": "lyriawerkbank:count_ingredient"
		},
		"W": {
			"item": "minecraft:wooden_shovel"
		},
		"O": {
			"item": "minecraft:oak_planks"
		}
	},
	"result": {
		"constant": "lyriawerkbank:kakaokiste"
	}
}
