{
	"type": "lyriawerkbank:crafting_nbt_shaped",
	"group": "lyriawerkbank:lapiskiste",
	"name": "Lapiskiste",
	"pattern": [
		"OWO",
		"OLO",
		"OOO"
	],
	"key": {
		"W": {
			"item": "minecraft:wooden_shovel"
		},
		"L": {
			"item": "minecraft:lapis_lazuli",
			"count": 32,
			"type": "lyriawerkbank:count_ingredient"
		},
		"O": {
			"item": "minecraft:oak_planks"
		}
	},
	"result": {
		"constant": "lyriawerkbank:lapiskiste"
	}
}
