{
	"type": "lyriawerkbank:crafting_nbt_shaped",
	"group": "lyriawerkbank:versteinerte_holzstufe",
	"name": "Versteinerte Holzstufe",
	"pattern": [
		"   ",
		"   ",
		"OCO"
	],
	"key": {
		"C": {
			"item": "minecraft:cobblestone"
		},
		"O": {
			"item": "minecraft:oak_planks"
		}
	},
	"result": {
		"constant": "lyriawerkbank:versteinerte_holzstufe",
		"count": 6
	}
}
