{
	"type": "lyriawerkbank:crafting_nbt_shaped",
	"group": "lyriawerkbank:zuckersack",
	"name": "Zuckersack",
	"pattern": [
		"BWB",
		"BSB",
		"BBB"
	],
	"key": {
		"B": {
			"item": "minecraft:birch_planks"
		},
		"S": {
			"item": "minecraft:sugar",
			"count": 32,
			"type": "lyriawerkbank:count_ingredient"
		},
		"W": {
			"item": "minecraft:wooden_shovel"
		}
	},
	"result": {
		"constant": "lyriawerkbank:zuckersack"
	}
}
