{
	"type": "lyriawerkbank:crafting_nbt_shaped",
	"group": "lyriawerkbank:kettenhose_des_guntor",
	"name": "Kettenhose Des Guntor",
	"pattern": [
		"PVP",
		"V V",
		"V V"
	],
	"key": {
		"P": {
			"constant": "lyriawerkbank:polierter_saphir",
			"name": "Polierter Saphir"
		},
		"V": {
			"constant": "lyriawerkbank:veredeltes_kupferfragment",
			"name": "Veredeltes Kupferfragment"
		}
	},
	"result": {
		"constant": "lyriawerkbank:kettenhose_des_guntor"
	}
}
