{
	"type": "lyriawerkbank:crafting_nbt_shaped",
	"group": "lyriawerkbank:lederbespannter_elementarstab",
	"name": "Lederbespannter Elementarstab",
	"pattern": [
		"GRG",
		" G ",
		" OE"
	],
	"key": {
		"R": {
			"constant": "lyriawerkbank:robuster_orb",
			"name": "Robuster Orb"
		},
		"E": {
			"constant": "lyriawerkbank:geschliffener_smaragd",
			"name": "Geschliffener Smaragd"
		},
		"G": {
			"constant": "lyriawerkbank:gehobeltes_fichtenholz",
			"name": "Gehobeltes Fichtenholz"
		},
		"O": {
			"constant": "lyriawerkbank:robuster_zauberstabrohling",
			"name": "Robuster Zauberstabrohling"
		}
	},
	"result": {
		"constant": "lyriawerkbank:lederbespannter_elementarstab"
	}
}
