{
	"type": "lyriawerkbank:crafting_nbt_shaped",
	"group": "lyriawerkbank:eisen_pferderuestung",
	"name": "Eisen Pferderüstung",
	"pattern": [
		"SSS",
		"VBV",
		"VBV"
	],
	"key": {
		"B": {
			"item": "minecraft:black_wool",
			"count": 8,
			"type": "lyriawerkbank:count_ingredient"
		},
		"S": {
			"constant": "lyriawerkbank:spaltleder",
			"name": "Spaltleder",
			"count": 2,
			"type": "lyriawerkbank:count_constants_ingredient"
		},
		"V": {
			"constant": "lyriawerkbank:veredelter_eisenblock",
			"name": "Veredelter Eisenblock",
			"count": 2,
			"type": "lyriawerkbank:count_constants_ingredient"
		}
	},
	"result": {
		"constant": "lyriawerkbank:eisen_pferderuestung"
	}
}
