{
	"type": "lyriawerkbank:crafting_nbt_shaped",
	"group": "lyriawerkbank:geschliffener_achat",
	"name": "Geschliffener Achat",
	"pattern": [
		"RUR",
		"GUG",
		" G "
	],
	"key": {
		"R": {
			"constant": "lyriawerkbank:rindertalg",
			"name": "Rindertalg"
		},
		"U": {
			"constant": "lyriawerkbank:unbearbeiteter_achat",
			"name": "Unbearbeiteter Achat"
		},
		"G": {
			"constant": "lyriawerkbank:gehobeltes_schwarzeichenholz",
			"name": "Gehobeltes Schwarzeichenholz"
		}
	},
	"result": {
		"constant": "lyriawerkbank:geschliffener_achat"
	}
}
