{
	"type": "lyriawerkbank:crafting_nbt_shaped",
	"group": "lyriawerkbank:gravierter_smaragd",
	"name": "Gravierter Smaragd",
	"pattern": [
		"ZPS",
		"VPV",
		" V "
	],
	"key": {
		"P": {
			"constant": "lyriawerkbank:polierter_smaragd",
			"name": "Polierter Smaragd"
		},
		"S": {
			"constant": "lyriawerkbank:seelensekret",
			"name": "Seelensekret"
		},
		"V": {
			"constant": "lyriawerkbank:veredeltes_tropenholz",
			"name": "Veredeltes Tropenholz"
		},
		"Z": {
			"constant": "lyriawerkbank:zuckerrohrwachs",
			"name": "Zuckerrohrwachs"
		}
	},
	"result": {
		"constant": "lyriawerkbank:gravierter_smaragd"
	}
}
