{
	"type": "lyriawerkbank:crafting_nbt_shaped",
	"group": "lyriawerkbank:hochwertige_siedlerspitzhacke",
	"name": "Hochwertige Siedlerspitzhacke",
	"pattern": [
		"VVV",
		" G ",
		" HE"
	],
	"key": {
		"E": {
			"constant": "lyriawerkbank:geschliffener_opal",
			"name": "Geschliffener Opal"
		},
		"V": {
			"constant": "lyriawerkbank:veredelter_kupferbarren",
			"name": "Veredelter Kupferbarren"
		},
		"G": {
			"constant": "lyriawerkbank:geschliffenes_schwarzeichenholz",
			"name": "Geschliffenes Schwarzeichenholz"
		},
		"H": {
			"constant": "lyriawerkbank:hochwertiges_griffstueck",
			"name": "Hochwertiges Griffstück"
		}
	},
	"result": {
		"constant": "lyriawerkbank:hochwertige_siedlerspitzhacke"
	}
}
