{
	"type": "lyriawerkbank:crafting_nbt_shaped",
	"group": "lyriawerkbank:polierter_opal",
	"name": "Polierter Opal",
	"pattern": [
		"FGS",
		"EGE",
		" E "
	],
	"key": {
		"S": {
			"constant": "lyriawerkbank:sumpfsekret",
			"name": "Sumpfsekret"
		},
		"E": {
			"constant": "lyriawerkbank:geschliffenes_birkenholz",
			"name": "Geschliffenes Birkenholz"
		},
		"F": {
			"constant": "lyriawerkbank:filz",
			"name": "Filz"
		},
		"G": {
			"constant": "lyriawerkbank:geschliffener_opal",
			"name": "Geschliffener Opal"
		}
	},
	"result": {
		"constant": "lyriawerkbank:polierter_opal"
	}
}
