{
	"type": "lyriawerkbank:crafting_nbt_shaped",
	"group": "lyriawerkbank:robuster_spaten",
	"name": "Robuster Spaten",
	"pattern": [
		" E ",
		" G ",
		" RU"
	],
	"key": {
		"R": {
			"constant": "lyriawerkbank:robustes_griffstueck",
			"name": "Robustes Griffstück"
		},
		"E": {
			"constant": "lyriawerkbank:einfacher_stahlbarren",
			"name": "Einfacher Stahlbarren"
		},
		"U": {
			"constant": "lyriawerkbank:unbearbeiteter_rubin",
			"name": "Unbearbeiteter Rubin"
		},
		"G": {
			"constant": "lyriawerkbank:gehobeltes_eichenholz",
			"name": "Gehobeltes Eichenholz"
		}
	},
	"result": {
		"constant": "lyriawerkbank:robuster_spaten"
	}
}
