{
	"type": "lyriawerkbank:crafting_nbt_shaped",
	"group": "lyriawerkbank:runenverzierter_spaten",
	"name": "Runenverzierter Spaten",
	"pattern": [
		" V ",
		" E ",
		" RP"
	],
	"key": {
		"P": {
			"constant": "lyriawerkbank:polierter_rubin",
			"name": "Polierter Rubin"
		},
		"R": {
			"constant": "lyriawerkbank:runenverziertes_griffstueck",
			"name": "Runenverziertes Griffstück"
		},
		"E": {
			"constant": "lyriawerkbank:veredeltes_eichenholz",
			"name": "Veredeltes Eichenholz"
		},
		"V": {
			"constant": "lyriawerkbank:veredelter_goldbarren",
			"name": "Veredelter Goldbarren"
		}
	},
	"result": {
		"constant": "lyriawerkbank:runenverzierter_spaten"
	}
}
