{
	"type": "lyriawerkbank:crafting_nbt_shaped",
	"group": "lyriawerkbank:schlichte_schaufel",
	"name": "Schlichte Schaufel",
	"pattern": [
		" E ",
		" G ",
		" SU"
	],
	"key": {
		"S": {
			"constant": "lyriawerkbank:schlichtes_griffstueck",
			"name": "Schlichtes Griffstück"
		},
		"E": {
			"constant": "lyriawerkbank:einfacher_kupferbarren",
			"name": "Einfacher Kupferbarren"
		},
		"U": {
			"constant": "lyriawerkbank:unbearbeiteter_rubin",
			"name": "Unbearbeiteter Rubin"
		},
		"G": {
			"constant": "lyriawerkbank:gehobeltes_birkenholz",
			"name": "Gehobeltes Birkenholz"
		}
	},
	"result": {
		"constant": "lyriawerkbank:schlichte_schaufel"
	}
}
