{
	"type": "lyriawerkbank:crafting_nbt_shaped",
	"group": "lyriawerkbank:unbearbeiteter_opal",
	"name": "Unbearbeiteter Opal",
	"pattern": [
		" Q ",
		"QDQ",
		" Q "
	],
	"key": {
		"Q": {
			"item": "minecraft:quartz"
		},
		"D": {
			"item": "minecraft:diamond"
		}
	},
	"result": {
		"constant": "lyriawerkbank:unbearbeiteter_opal"
	}
}
