{
	"type": "lyriawerkbank:crafting_nbt_shaped",
	"group": "lyriawerkbank:unbearbeiteter_rubin",
	"name": "Unbearbeiteter Rubin",
	"pattern": [
		" R ",
		"RDR",
		" R "
	],
	"key": {
		"R": {
			"item": "minecraft:redstone"
		},
		"D": {
			"item": "minecraft:diamond"
		}
	},
	"result": {
		"constant": "lyriawerkbank:unbearbeiteter_rubin"
	}
}
