{
	"type": "lyriawerkbank:crafting_nbt_shaped",
	"group": "lyriawerkbank:veredeltes_stahlfragment",
	"name": "Veredeltes Stahlfragment",
	"pattern": [
		" E ",
		"ELE",
		" E "
	],
	"key": {
		"E": {
			"constant": "lyriawerkbank:einfacher_stahlbarren",
			"name": "Einfacher Stahlbarren"
		},
		"L": {
			"constant": "lyriawerkbank:elementarsekret",
			"name": "Elementarsekret"
		}
	},
	"result": {
		"constant": "lyriawerkbank:veredeltes_stahlfragment",
		"count": 3
	}
}
