{
	"type": "lyriawerkbank:crafting_nbt_shaped",
	"group": "lyriawerkbank:veredelter_kupferbarren",
	"name": "Veredelter Kupferbarren",
	"pattern": [
		"   ",
		" A ",
		"VVV"
	],
	"key": {
		"A": {
			"constant": "lyriawerkbank:agavensirup",
			"name": "Agavensirup"
		},
		"V": {
			"constant": "lyriawerkbank:veredeltes_kupferfragment",
			"name": "Veredeltes Kupferfragment"
		}
	},
	"result": {
		"constant": "lyriawerkbank:veredelter_kupferbarren"
	}
}
