{
	"type": "lyriawerkbank:crafting_nbt_shaped",
	"group": "lyriawerkbank:edelsteinbesetzter_stab",
	"name": "Edelsteinbesetzter Stab",
	"pattern": [
		"EV ",
		" D ",
		"GV "
	],
	"key": {
		"D": {
			"constant": "lyriawerkbank:edelsteinbesetztes_griffstueck",
			"name": "Edelsteinbesetztes Griffstück"
		},
		"E": {
			"constant": "lyriawerkbank:edelsteinbesetztes_orbfragment",
			"name": "Edelsteinbesetztes Orbfragment"
		},
		"V": {
			"constant": "lyriawerkbank:veredelter_stahlbarren",
			"name": "Veredelter Stahlbarren"
		},
		"G": {
			"constant": "lyriawerkbank:gravierter_opal",
			"name": "Gravierter Opal"
		}
	},
	"result": {
		"constant": "lyriawerkbank:edelsteinbesetzter_stab"
	}
}
