{
	"type": "lyriawerkbank:crafting_nbt_shaped",
	"group": "lyriawerkbank:hochwertiger_stock",
	"name": "Hochwertiger Stock",
	"pattern": [
		"HE ",
		" O ",
		"PV "
	],
	"key": {
		"P": {
			"constant": "lyriawerkbank:polierter_diamant",
			"name": "Polierter Diamant"
		},
		"E": {
			"constant": "lyriawerkbank:einfacher_stahlbarren",
			"name": "Einfacher Stahlbarren"
		},
		"V": {
			"constant": "lyriawerkbank:veredelter_kupferbarren",
			"name": "Veredelter Kupferbarren"
		},
		"H": {
			"constant": "lyriawerkbank:hochwertiges_orbfragment",
			"name": "Hochwertiges Orbfragment"
		},
		"O": {
			"constant": "lyriawerkbank:hochwertiges_griffstueck",
			"name": "Hochwertiges Griffstück"
		}
	},
	"result": {
		"constant": "lyriawerkbank:hochwertiger_stock"
	}
}
