{
	"type": "lyriawerkbank:crafting_nbt_shaped",
	"group": "lyriawerkbank:runenverzierter_stab",
	"name": "Runenverzierter Stab",
	"pattern": [
		"RV ",
		" U ",
		"PV "
	],
	"key": {
		"P": {
			"constant": "lyriawerkbank:polierter_opal",
			"name": "Polierter Opal"
		},
		"R": {
			"constant": "lyriawerkbank:runenverziertes_orbfragment",
			"name": "Runenverziertes Orbfragment"
		},
		"U": {
			"constant": "lyriawerkbank:runenverziertes_griffstueck",
			"name": "Runenverziertes Griffstück"
		},
		"V": {
			"constant": "lyriawerkbank:veredelter_goldbarren",
			"name": "Veredelter Goldbarren"
		}
	},
	"result": {
		"constant": "lyriawerkbank:runenverzierter_stab"
	}
}
