{
	"type": "lyriawerkbank:crafting_nbt_shaped",
	"group": "lyriawerkbank:gehobeltes_akazienholz",
	"name": "Gehobeltes Akazienholz",
	"pattern": [
		"IKI",
		"AAA",
		"AAA"
	],
	"key": {
		"A": {
			"item": "minecraft:acacia_log"
		},
		"I": {
			"item": "minecraft:iron_nugget",
			"count": 3,
			"type": "lyriawerkbank:count_ingredient"
		},
		"K": {
			"constant": "lyriawerkbank:knochensplittersekret",
			"name": "Knochensplittersekret"
		}
	},
	"result": {
		"constant": "lyriawerkbank:gehobeltes_akazienholz",
		"count": 3
	}
}
