{
	"type": "lyriawerkbank:crafting_nbt_shaped",
	"group": "lyriawerkbank:geschliffenes_eichenholz",
	"name": "Geschliffenes Eichenholz",
	"pattern": [
		"PMS",
		"GGG",
		"GGG"
	],
	"key": {
		"P": {
			"item": "minecraft:paper"
		},
		"S": {
			"item": "minecraft:sand"
		},
		"G": {
			"constant": "lyriawerkbank:gehobeltes_eichenholz",
			"name": "Gehobeltes Eichenholz"
		},
		"M": {
			"constant": "lyriawerkbank:melasse",
			"name": "Melasse"
		}
	},
	"result": {
		"constant": "lyriawerkbank:geschliffenes_eichenholz",
		"count": 3
	}
}
