{
	"type": "lyriawerkbank:crafting_nbt_shaped",
	"group": "lyriawerkbank:hochwertige_holzfaelleraxt",
	"name": "Hochwertige Holzfälleraxt",
	"pattern": [
		" VE",
		" GE",
		" HS"
	],
	"key": {
		"S": {
			"constant": "lyriawerkbank:geschliffener_smaragd",
			"name": "Geschliffener Smaragd"
		},
		"E": {
			"constant": "lyriawerkbank:einfacher_stahlbarren",
			"name": "Einfacher Stahlbarren"
		},
		"V": {
			"constant": "lyriawerkbank:veredelter_kupferbarren",
			"name": "Veredelter Kupferbarren"
		},
		"G": {
			"constant": "lyriawerkbank:geschliffenes_eichenholz",
			"name": "Geschliffenes Eichenholz"
		},
		"H": {
			"constant": "lyriawerkbank:hochwertiges_griffstueck",
			"name": "Hochwertiges Griffstück"
		}
	},
	"result": {
		"constant": "lyriawerkbank:hochwertige_holzfaelleraxt"
	}
}
