{
	"type": "lyriawerkbank:crafting_nbt_shaped",
	"group": "lyriawerkbank:geschliffenes_jagdmesser",
	"name": "Geschliffenes Jagdmesser",
	"pattern": [
		"E  ",
		" VH",
		"  O"
	],
	"key": {
		"E": {
			"constant": "lyriawerkbank:einfacher_stahlbarren",
			"name": "Einfacher Stahlbarren"
		},
		"V": {
			"constant": "lyriawerkbank:veredelter_kupferbarren",
			"name": "Veredelter Kupferbarren"
		},
		"H": {
			"constant": "lyriawerkbank:hochwertiges_griffstueck",
			"name": "Hochwertiges Griffstück"
		},
		"O": {
			"constant": "lyriawerkbank:hochwertiges_orbfragment",
			"name": "Hochwertiges Orbfragment"
		}
	},
	"result": {
		"constant": "lyriawerkbank:geschliffenes_jagdmesser"
	}
}
