{
	"type": "lyriawerkbank:crafting_nbt_shaped",
	"group": "lyriawerkbank:falkensteiner_helm",
	"name": "Falkensteiner Helm",
	"pattern": [
		"III",
		"F F",
		"   "
	],
	"key": {
		"F": {
			"constant": "lyriawerkbank:falkenstein",
			"name": "Falkenstein"
		},
		"I": {
			"item": "minecraft:iron_ingot"
		}
	},
	"result": {
		"constant": "lyriawerkbank:falkensteiner_helm"
	}
}
