{
	"type": "lyriawerkbank:crafting_nbt_shaped",
	"group": "lyriawerkbank:geschliffene_klaue",
	"name": "Geschliffene Klaue",
	"pattern": [
		"   ",
		"V V",
		"HO "
	],
	"key": {
		"V": {
			"constant": "lyriawerkbank:veredelter_kupferbarren",
			"name": "Veredelter Kupferbarren"
		},
		"H": {
			"constant": "lyriawerkbank:hochwertiger_orb",
			"name": "Hochwertiger Orb"
		},
		"O": {
			"constant": "lyriawerkbank:hochwertiges_griffstueck",
			"name": "Hochwertiges Griffstück"
		}
	},
	"result": {
		"constant": "lyriawerkbank:geschliffene_klaue"
	}
}
