{
	"type": "lyriawerkbank:crafting_nbt_shaped",
	"group": "lyriawerkbank:lederbespannter_waldlaeuferbogen",
	"name": "Lederbespannter Waldläuferbogen",
	"pattern": [
		" GS",
		"ROS",
		"EGS"
	],
	"key": {
		"R": {
			"constant": "lyriawerkbank:robustes_griffstueck",
			"name": "Robustes Griffstück"
		},
		"S": {
			"item": "minecraft:string"
		},
		"E": {
			"constant": "lyriawerkbank:geschliffener_saphir",
			"name": "Geschliffener Saphir"
		},
		"G": {
			"constant": "lyriawerkbank:gehobeltes_birkenholz",
			"name": "Gehobeltes Birkenholz"
		},
		"O": {
			"constant": "lyriawerkbank:robustes_orbfragment",
			"name": "Robustes Orbfragment"
		}
	},
	"result": {
		"constant": "lyriawerkbank:lederbespannter_waldlaeuferbogen"
	}
}
