{
	"type": "lyriawerkbank:crafting_nbt_shaped",
	"group": "lyriawerkbank:beschlagener_kampfbogen",
	"name": "Beschlagener Kampfbogen",
	"pattern": [
		" GS",
		"ROS",
		"EGS"
	],
	"key": {
		"R": {
			"constant": "lyriawerkbank:robustes_griffstueck",
			"name": "Robustes Griffstück"
		},
		"S": {
			"item": "minecraft:string"
		},
		"E": {
			"constant": "lyriawerkbank:geschliffener_opal",
			"name": "Geschliffener Opal"
		},
		"G": {
			"constant": "lyriawerkbank:gehobeltes_akazienholz",
			"name": "Gehobeltes Akazienholz"
		},
		"O": {
			"constant": "lyriawerkbank:robustes_orbfragment",
			"name": "Robustes Orbfragment"
		}
	},
	"result": {
		"constant": "lyriawerkbank:beschlagener_kampfbogen"
	}
}
